{"data":[{"id":15,"attributes":{"name":"Sb Admin","description":"Sb Admin -Free Responsive Tailwind CSS Admin Dashboard Template","price":0,"isRecommended":true,"livePreviewUrl":"https://sb-admin-five.vercel.app/","createdAt":"2023-12-18T03:08:02.941Z","updatedAt":"2023-12-21T04:54:57.186Z","publishedAt":"2023-12-18T03:08:02.938Z","gitUrl":"https://github.com/lyhou123/SB-Admin","thumbnail":{"data":{"id":3270,"attributes":{"name":"sb-admin.png","alternativeText":null,"caption":null,"width":1280,"height":800,"formats":{"large":{"ext":".png","url":"/uploads/large_sb_admin_87d72efc13.png","hash":"large_sb_admin_87d72efc13","mime":"image/png","name":"large_sb-admin.png","path":null,"size":159.51,"width":1000,"height":625},"small":{"ext":".png","url":"/uploads/small_sb_admin_87d72efc13.png","hash":"small_sb_admin_87d72efc13","mime":"image/png","name":"small_sb-admin.png","path":null,"size":56.7,"width":500,"height":313},"medium":{"ext":".png","url":"/uploads/medium_sb_admin_87d72efc13.png","hash":"medium_sb_admin_87d72efc13","mime":"image/png","name":"medium_sb-admin.png","path":null,"size":104.76,"width":750,"height":469},"thumbnail":{"ext":".png","url":"/uploads/thumbnail_sb_admin_87d72efc13.png","hash":"thumbnail_sb_admin_87d72efc13","mime":"image/png","name":"thumbnail_sb-admin.png","path":null,"size":21.3,"width":245,"height":153}},"hash":"sb_admin_87d72efc13","ext":".png","mime":"image/png","size":107.72,"url":"/uploads/sb_admin_87d72efc13.png","previewUrl":null,"provider":"local","provider_metadata":null,"createdAt":"2023-12-18T03:07:44.465Z","updatedAt":"2023-12-18T03:07:44.465Z"}}},"category":{"data":{"id":13,"attributes":{"name":"string","createdAt":"2023-12-17T09:56:05.881Z","updatedAt":"2023-12-19T17:15:52.109Z","publishedAt":"2023-12-17T09:56:05.879Z"}}}}},{"id":16,"attributes":{"name":"Dashmin","description":"Dashmin - Free Responsive Tailwind CSS Admin Dashboard Template","price":0,"isRecommended":true,"livePreviewUrl":"https://dashmin.vercel.app/","createdAt":"2023-12-18T03:10:04.529Z","updatedAt":"2023-12-21T04:56:41.817Z","publishedAt":"2023-12-18T03:10:04.526Z","gitUrl":"https://github.com/lyhou123/Dashmin","thumbnail":{"data":{"id":3271,"attributes":{"name":"Dashmin.png","alternativeText":null,"caption":null,"width":1280,"height":800,"formats":{"large":{"ext":".png","url":"/uploads/large_Dashmin_4fb9fc51ea.png","hash":"large_Dashmin_4fb9fc51ea","mime":"image/png","name":"large_Dashmin.png","path":null,"size":186.22,"width":1000,"height":625},"small":{"ext":".png","url":"/uploads/small_Dashmin_4fb9fc51ea.png","hash":"small_Dashmin_4fb9fc51ea","mime":"image/png","name":"small_Dashmin.png","path":null,"size":71.13,"width":500,"height":313},"medium":{"ext":".png","url":"/uploads/medium_Dashmin_4fb9fc51ea.png","hash":"medium_Dashmin_4fb9fc51ea","mime":"image/png","name":"medium_Dashmin.png","path":null,"size":124.92,"width":750,"height":469},"thumbnail":{"ext":".png","url":"/uploads/thumbnail_Dashmin_4fb9fc51ea.png","hash":"thumbnail_Dashmin_4fb9fc51ea","mime":"image/png","name":"thumbnail_Dashmin.png","path":null,"size":27,"width":245,"height":153}},"hash":"Dashmin_4fb9fc51ea","ext":".png","mime":"image/png","size":112.68,"url":"/uploads/Dashmin_4fb9fc51ea.png","previewUrl":null,"provider":"local","provider_metadata":null,"createdAt":"2023-12-18T03:09:38.277Z","updatedAt":"2023-12-18T03:09:38.277Z"}}},"category":{"data":{"id":13,"attributes":{"name":"string","createdAt":"2023-12-17T09:56:05.881Z","updatedAt":"2023-12-19T17:15:52.109Z","publishedAt":"2023-12-17T09:56:05.879Z"}}}}},{"id":19,"attributes":{"name":"Material Dashboard ","description":"Meterial Dashboard Boostrap Free Responsive Admin Dashboard Template","price":0,"isRecommended":true,"livePreviewUrl":"https://dark-board.vercel.app/dist/index.html","createdAt":"2023-12-19T09:42:05.010Z","updatedAt":"2023-12-21T04:58:27.228Z","publishedAt":"2023-12-19T09:42:05.007Z","gitUrl":"https://github.com/lyhou123/DarkBoard","thumbnail":{"data":{"id":3351,"attributes":{"name":"Material-Dashboard.webp","alternativeText":null,"caption":null,"width":1358,"height":1027,"formats":{"large":{"ext":".webp","url":"/uploads/large_Material_Dashboard_11925f02fb.webp","hash":"large_Material_Dashboard_11925f02fb","mime":"image/webp","name":"large_Material-Dashboard.webp","path":null,"size":47.16,"width":1000,"height":756},"small":{"ext":".webp","url":"/uploads/small_Material_Dashboard_11925f02fb.webp","hash":"small_Material_Dashboard_11925f02fb","mime":"image/webp","name":"small_Material-Dashboard.webp","path":null,"size":18.33,"width":500,"height":378},"medium":{"ext":".webp","url":"/uploads/medium_Material_Dashboard_11925f02fb.webp","hash":"medium_Material_Dashboard_11925f02fb","mime":"image/webp","name":"medium_Material-Dashboard.webp","path":null,"size":32.64,"width":750,"height":567},"thumbnail":{"ext":".webp","url":"/uploads/thumbnail_Material_Dashboard_11925f02fb.webp","hash":"thumbnail_Material_Dashboard_11925f02fb","mime":"image/webp","name":"thumbnail_Material-Dashboard.webp","path":null,"size":5.07,"width":206,"height":156}},"hash":"Material_Dashboard_11925f02fb","ext":".webp","mime":"image/webp","size":75.36,"url":"/uploads/Material_Dashboard_11925f02fb.webp","previewUrl":null,"provider":"local","provider_metadata":null,"createdAt":"2023-12-19T09:41:10.075Z","updatedAt":"2023-12-19T09:41:10.075Z"}}},"category":{"data":{"id":13,"attributes":{"name":"string","createdAt":"2023-12-17T09:56:05.881Z","updatedAt":"2023-12-19T17:15:52.109Z","publishedAt":"2023-12-17T09:56:05.879Z"}}}}},{"id":42,"attributes":{"name":"Winestore","description":"Boostrap ,web designer  ,E-commerce","price":0,"isRecommended":true,"livePreviewUrl":"https://wineshop-ashen.vercel.app/","createdAt":"2023-12-21T15:32:57.863Z","updatedAt":"2023-12-21T15:32:57.863Z","publishedAt":"2023-12-21T15:32:57.860Z","gitUrl":"https://github.com/NaSreytey/wineshop.git","thumbnail":{"data":{"id":3533,"attributes":{"name":"drink.jpg","alternativeText":null,"caption":null,"width":1280,"height":800,"formats":{"large":{"ext":".jpg","url":"/uploads/large_drink_cba7fb7ad5.jpg","hash":"large_drink_cba7fb7ad5","mime":"image/jpeg","name":"large_drink.jpg","path":null,"size":91.65,"width":1000,"height":625},"small":{"ext":".jpg","url":"/uploads/small_drink_cba7fb7ad5.jpg","hash":"small_drink_cba7fb7ad5","mime":"image/jpeg","name":"small_drink.jpg","path":null,"size":26.92,"width":500,"height":313},"medium":{"ext":".jpg","url":"/uploads/medium_drink_cba7fb7ad5.jpg","hash":"medium_drink_cba7fb7ad5","mime":"image/jpeg","name":"medium_drink.jpg","path":null,"size":54.96,"width":750,"height":469},"thumbnail":{"ext":".jpg","url":"/uploads/thumbnail_drink_cba7fb7ad5.jpg","hash":"thumbnail_drink_cba7fb7ad5","mime":"image/jpeg","name":"thumbnail_drink.jpg","path":null,"size":8.25,"width":245,"height":153}},"hash":"drink_cba7fb7ad5","ext":".jpg","mime":"image/jpeg","size":138.68,"url":"/uploads/drink_cba7fb7ad5.jpg","previewUrl":null,"provider":"local","provider_metadata":null,"createdAt":"2023-12-21T15:17:22.688Z","updatedAt":"2023-12-21T15:17:22.688Z"}}},"category":{"data":{"id":20,"attributes":{"name":"string","createdAt":"2023-12-21T15:21:57.209Z","updatedAt":"2023-12-21T16:01:23.960Z","publishedAt":"2023-12-21T15:21:57.207Z"}}}}},{"id":40,"attributes":{"name":"Clotheshop","description":" Boostrap, web designer & develop ,E-commerce","price":0,"isRecommended":true,"livePreviewUrl":"https://clotheshop.vercel.app/","createdAt":"2023-12-21T15:30:13.051Z","updatedAt":"2023-12-21T15:55:31.843Z","publishedAt":"2023-12-21T15:30:13.049Z","gitUrl":"https://github.com/NaSreytey/clotheshop.git","thumbnail":{"data":{"id":3531,"attributes":{"name":"iu.jpg","alternativeText":null,"caption":null,"width":1280,"height":800,"formats":{"large":{"ext":".jpg","url":"/uploads/large_iu_0f107e0fb7.jpg","hash":"large_iu_0f107e0fb7","mime":"image/jpeg","name":"large_iu.jpg","path":null,"size":59.02,"width":1000,"height":625},"small":{"ext":".jpg","url":"/uploads/small_iu_0f107e0fb7.jpg","hash":"small_iu_0f107e0fb7","mime":"image/jpeg","name":"small_iu.jpg","path":null,"size":18.34,"width":500,"height":313},"medium":{"ext":".jpg","url":"/uploads/medium_iu_0f107e0fb7.jpg","hash":"medium_iu_0f107e0fb7","mime":"image/jpeg","name":"medium_iu.jpg","path":null,"size":35.53,"width":750,"height":469},"thumbnail":{"ext":".jpg","url":"/uploads/thumbnail_iu_0f107e0fb7.jpg","hash":"thumbnail_iu_0f107e0fb7","mime":"image/jpeg","name":"thumbnail_iu.jpg","path":null,"size":5.85,"width":245,"height":153}},"hash":"iu_0f107e0fb7","ext":".jpg","mime":"image/jpeg","size":86.64,"url":"/uploads/iu_0f107e0fb7.jpg","previewUrl":null,"provider":"local","provider_metadata":null,"createdAt":"2023-12-21T15:16:12.226Z","updatedAt":"2023-12-21T15:16:12.226Z"}}},"category":{"data":{"id":20,"attributes":{"name":"string","createdAt":"2023-12-21T15:21:57.209Z","updatedAt":"2023-12-21T16:01:23.960Z","publishedAt":"2023-12-21T15:21:57.207Z"}}}}},{"id":41,"attributes":{"name":"Houserest","description":"create, tailwind ,web designer  ,E-commerce","price":0,"isRecommended":true,"livePreviewUrl":"https://houserest-bbjy.vercel.app/","createdAt":"2023-12-21T15:31:58.030Z","updatedAt":"2023-12-21T15:58:41.200Z","publishedAt":"2023-12-21T15:31:58.028Z","gitUrl":"https://github.com/NaSreytey/houserest.git","thumbnail":{"data":{"id":3532,"attributes":{"name":"house.jpg","alternativeText":null,"caption":null,"width":1280,"height":800,"formats":{"large":{"ext":".jpg","url":"/uploads/large_house_6f648ad8d7.jpg","hash":"large_house_6f648ad8d7","mime":"image/jpeg","name":"large_house.jpg","path":null,"size":77.25,"width":1000,"height":625},"small":{"ext":".jpg","url":"/uploads/small_house_6f648ad8d7.jpg","hash":"small_house_6f648ad8d7","mime":"image/jpeg","name":"small_house.jpg","path":null,"size":25.17,"width":500,"height":313},"medium":{"ext":".jpg","url":"/uploads/medium_house_6f648ad8d7.jpg","hash":"medium_house_6f648ad8d7","mime":"image/jpeg","name":"medium_house.jpg","path":null,"size":48.74,"width":750,"height":469},"thumbnail":{"ext":".jpg","url":"/uploads/thumbnail_house_6f648ad8d7.jpg","hash":"thumbnail_house_6f648ad8d7","mime":"image/jpeg","name":"thumbnail_house.jpg","path":null,"size":7.31,"width":245,"height":153}},"hash":"house_6f648ad8d7","ext":".jpg","mime":"image/jpeg","size":108.76,"url":"/uploads/house_6f648ad8d7.jpg","previewUrl":null,"provider":"local","provider_metadata":null,"createdAt":"2023-12-21T15:17:02.003Z","updatedAt":"2023-12-21T15:17:02.003Z"}}},"category":{"data":{"id":20,"attributes":{"name":"string","createdAt":"2023-12-21T15:21:57.209Z","updatedAt":"2023-12-21T16:01:23.960Z","publishedAt":"2023-12-21T15:21:57.207Z"}}}}},{"id":43,"attributes":{"name":"Food-blog","description":"share the delicious food here  support html, css, sass , bootstrap5","price":0,"isRecommended":true,"livePreviewUrl":" https://food-blog-red.vercel.app/www.upmenu.com/blog/food-blogs/index.html","createdAt":"2023-12-21T16:18:56.035Z","updatedAt":"2023-12-21T16:18:56.035Z","publishedAt":"2023-12-21T16:18:56.032Z","gitUrl":" https://github.com/sornpisey0123/food-blog","thumbnail":{"data":{"id":3544,"attributes":{"name":"food-blog.png","alternativeText":null,"caption":null,"width":1280,"height":800,"formats":{"large":{"ext":".png","url":"/uploads/large_food_blog_266348121a.png","hash":"large_food_blog_266348121a","mime":"image/png","name":"large_food-blog.png","path":null,"size":64.21,"width":1000,"height":625},"small":{"ext":".png","url":"/uploads/small_food_blog_266348121a.png","hash":"small_food_blog_266348121a","mime":"image/png","name":"small_food-blog.png","path":null,"size":24.45,"width":500,"height":313},"medium":{"ext":".png","url":"/uploads/medium_food_blog_266348121a.png","hash":"medium_food_blog_266348121a","mime":"image/png","name":"medium_food-blog.png","path":null,"size":43.16,"width":750,"height":469},"thumbnail":{"ext":".png","url":"/uploads/thumbnail_food_blog_266348121a.png","hash":"thumbnail_food_blog_266348121a","mime":"image/png","name":"thumbnail_food-blog.png","path":null,"size":8.89,"width":245,"height":153}},"hash":"food_blog_266348121a","ext":".png","mime":"image/png","size":45.81,"url":"/uploads/food_blog_266348121a.png","previewUrl":null,"provider":"local","provider_metadata":null,"createdAt":"2023-12-21T16:04:11.504Z","updatedAt":"2023-12-21T16:04:11.504Z"}}},"category":{"data":{"id":21,"attributes":{"name":"Blog","createdAt":"2023-12-21T16:13:55.309Z","updatedAt":"2023-12-21T16:36:48.554Z","publishedAt":"2023-12-21T16:13:55.307Z"}}}}},{"id":45,"attributes":{"name":"Story-blog","description":"inspire about design concept here  support html, css, sass , bootstrap5","price":0,"isRecommended":true,"livePreviewUrl":" https://story-blog-ivory.vercel.app/","createdAt":"2023-12-21T16:21:22.035Z","updatedAt":"2023-12-21T16:21:22.035Z","publishedAt":"2023-12-21T16:21:22.032Z","gitUrl":"https://github.com/sornpisey0123/story-blog","thumbnail":{"data":{"id":3545,"attributes":{"name":"story-blog.png","alternativeText":null,"caption":null,"width":1280,"height":800,"formats":{"large":{"ext":".png","url":"/uploads/large_story_blog_c6338dcc68.png","hash":"large_story_blog_c6338dcc68","mime":"image/png","name":"large_story-blog.png","path":null,"size":242.87,"width":1000,"height":625},"small":{"ext":".png","url":"/uploads/small_story_blog_c6338dcc68.png","hash":"small_story_blog_c6338dcc68","mime":"image/png","name":"small_story-blog.png","path":null,"size":74.83,"width":500,"height":313},"medium":{"ext":".png","url":"/uploads/medium_story_blog_c6338dcc68.png","hash":"medium_story_blog_c6338dcc68","mime":"image/png","name":"medium_story-blog.png","path":null,"size":150.51,"width":750,"height":469},"thumbnail":{"ext":".png","url":"/uploads/thumbnail_story_blog_c6338dcc68.png","hash":"thumbnail_story_blog_c6338dcc68","mime":"image/png","name":"thumbnail_story-blog.png","path":null,"size":21.88,"width":245,"height":153}},"hash":"story_blog_c6338dcc68","ext":".png","mime":"image/png","size":209.65,"url":"/uploads/story_blog_c6338dcc68.png","previewUrl":null,"provider":"local","provider_metadata":null,"createdAt":"2023-12-21T16:05:55.756Z","updatedAt":"2023-12-21T16:05:55.756Z"}}},"category":{"data":{"id":21,"attributes":{"name":"Blog","createdAt":"2023-12-21T16:13:55.309Z","updatedAt":"2023-12-21T16:36:48.554Z","publishedAt":"2023-12-21T16:13:55.307Z"}}}}},{"id":27,"attributes":{"name":"Transport Service","description":"Responsive, 2 Columns Dark on Light","price":0,"isRecommended":true,"livePreviewUrl":"https://transport-service.vercel.app/","createdAt":"2023-12-19T17:27:52.269Z","updatedAt":"2023-12-19T17:27:52.269Z","publishedAt":"2023-12-19T17:27:52.267Z","gitUrl":null,"thumbnail":{"data":{"id":3372,"attributes":{"name":"Transport.png","alternativeText":null,"caption":null,"width":1280,"height":800,"formats":{"large":{"ext":".png","url":"/uploads/large_Transport_d6ba0cafec.png","hash":"large_Transport_d6ba0cafec","mime":"image/png","name":"large_Transport.png","path":null,"size":540.19,"width":1000,"height":625},"small":{"ext":".png","url":"/uploads/small_Transport_d6ba0cafec.png","hash":"small_Transport_d6ba0cafec","mime":"image/png","name":"small_Transport.png","path":null,"size":157.26,"width":500,"height":313},"medium":{"ext":".png","url":"/uploads/medium_Transport_d6ba0cafec.png","hash":"medium_Transport_d6ba0cafec","mime":"image/png","name":"medium_Transport.png","path":null,"size":319.77,"width":750,"height":469},"thumbnail":{"ext":".png","url":"/uploads/thumbnail_Transport_d6ba0cafec.png","hash":"thumbnail_Transport_d6ba0cafec","mime":"image/png","name":"thumbnail_Transport.png","path":null,"size":48.8,"width":245,"height":153}},"hash":"Transport_d6ba0cafec","ext":".png","mime":"image/png","size":625.53,"url":"/uploads/Transport_d6ba0cafec.png","previewUrl":null,"provider":"local","provider_metadata":null,"createdAt":"2023-12-19T17:26:51.223Z","updatedAt":"2023-12-19T17:26:51.223Z"}}},"category":{"data":{"id":18,"attributes":{"name":"Buseniss","createdAt":"2023-12-19T17:22:11.390Z","updatedAt":"2023-12-20T01:46:56.797Z","publishedAt":"2023-12-19T17:22:11.388Z"}}}}},{"id":28,"attributes":{"name":"Bike Shop","description":"Bootstrape, Commerce, jQuery, Online Shop, Responsive","price":0,"isRecommended":true,"livePreviewUrl":"https://bike-shop-three.vercel.app//","createdAt":"2023-12-19T17:29:37.161Z","updatedAt":"2023-12-19T17:29:37.161Z","publishedAt":"2023-12-19T17:29:37.158Z","gitUrl":null,"thumbnail":{"data":{"id":3373,"attributes":{"name":"BikeShop.png","alternativeText":null,"caption":null,"width":1280,"height":800,"formats":{"large":{"ext":".png","url":"/uploads/large_Bike_Shop_75ab4b8c9f.png","hash":"large_Bike_Shop_75ab4b8c9f","mime":"image/png","name":"large_BikeShop.png","path":null,"size":248.63,"width":1000,"height":625},"small":{"ext":".png","url":"/uploads/small_Bike_Shop_75ab4b8c9f.png","hash":"small_Bike_Shop_75ab4b8c9f","mime":"image/png","name":"small_BikeShop.png","path":null,"size":76.83,"width":500,"height":313},"medium":{"ext":".png","url":"/uploads/medium_Bike_Shop_75ab4b8c9f.png","hash":"medium_Bike_Shop_75ab4b8c9f","mime":"image/png","name":"medium_BikeShop.png","path":null,"size":152.13,"width":750,"height":469},"thumbnail":{"ext":".png","url":"/uploads/thumbnail_Bike_Shop_75ab4b8c9f.png","hash":"thumbnail_Bike_Shop_75ab4b8c9f","mime":"image/png","name":"thumbnail_BikeShop.png","path":null,"size":24.4,"width":245,"height":153}},"hash":"Bike_Shop_75ab4b8c9f","ext":".png","mime":"image/png","size":313.28,"url":"/uploads/Bike_Shop_75ab4b8c9f.png","previewUrl":null,"provider":"local","provider_metadata":null,"createdAt":"2023-12-19T17:29:31.421Z","updatedAt":"2023-12-19T17:29:31.421Z"}}},"category":{"data":{"id":18,"attributes":{"name":"Buseniss","createdAt":"2023-12-19T17:22:11.390Z","updatedAt":"2023-12-20T01:46:56.797Z","publishedAt":"2023-12-19T17:22:11.388Z"}}}}},{"id":29,"attributes":{"name":"Business","description":" Bootstrap, Multipurpose, OnePage, Responsive","price":0,"isRecommended":true,"livePreviewUrl":" https://https-github-com-puvath-business-2.vercel.app/","createdAt":"2023-12-19T17:36:25.084Z","updatedAt":"2023-12-19T17:36:25.084Z","publishedAt":"2023-12-19T17:36:25.081Z","gitUrl":null,"thumbnail":{"data":{"id":3375,"attributes":{"name":"Bisenies.png","alternativeText":null,"caption":null,"width":1280,"height":800,"formats":{"large":{"ext":".png","url":"/uploads/large_Bisenies_70c09eb83e.png","hash":"large_Bisenies_70c09eb83e","mime":"image/png","name":"large_Bisenies.png","path":null,"size":507.59,"width":1000,"height":625},"small":{"ext":".png","url":"/uploads/small_Bisenies_70c09eb83e.png","hash":"small_Bisenies_70c09eb83e","mime":"image/png","name":"small_Bisenies.png","path":null,"size":165.95,"width":500,"height":313},"medium":{"ext":".png","url":"/uploads/medium_Bisenies_70c09eb83e.png","hash":"medium_Bisenies_70c09eb83e","mime":"image/png","name":"medium_Bisenies.png","path":null,"size":322.59,"width":750,"height":469},"thumbnail":{"ext":".png","url":"/uploads/thumbnail_Bisenies_70c09eb83e.png","hash":"thumbnail_Bisenies_70c09eb83e","mime":"image/png","name":"thumbnail_Bisenies.png","path":null,"size":50.3,"width":245,"height":153}},"hash":"Bisenies_70c09eb83e","ext":".png","mime":"image/png","size":391.12,"url":"/uploads/Bisenies_70c09eb83e.png","previewUrl":null,"provider":"local","provider_metadata":null,"createdAt":"2023-12-19T17:36:18.030Z","updatedAt":"2023-12-19T17:36:18.030Z"}}},"category":{"data":{"id":18,"attributes":{"name":"Buseniss","createdAt":"2023-12-19T17:22:11.390Z","updatedAt":"2023-12-20T01:46:56.797Z","publishedAt":"2023-12-19T17:22:11.388Z"}}}}},{"id":30,"attributes":{"name":"Car Services","description":"Bootstrap, CarsIndustry, jQuery, Services, Responsive","price":0,"isRecommended":true,"livePreviewUrl":"https://https-github-com-puvath-business.vercel.app/","createdAt":"2023-12-19T17:37:30.099Z","updatedAt":"2023-12-19T17:37:30.099Z","publishedAt":"2023-12-19T17:37:30.089Z","gitUrl":null,"thumbnail":{"data":{"id":3376,"attributes":{"name":"car service.png","alternativeText":null,"caption":null,"width":1280,"height":800,"formats":{"large":{"ext":".png","url":"/uploads/large_car_service_bb3ab36637.png","hash":"large_car_service_bb3ab36637","mime":"image/png","name":"large_car service.png","path":null,"size":425.52,"width":1000,"height":625},"small":{"ext":".png","url":"/uploads/small_car_service_bb3ab36637.png","hash":"small_car_service_bb3ab36637","mime":"image/png","name":"small_car service.png","path":null,"size":132.28,"width":500,"height":313},"medium":{"ext":".png","url":"/uploads/medium_car_service_bb3ab36637.png","hash":"medium_car_service_bb3ab36637","mime":"image/png","name":"medium_car service.png","path":null,"size":259.75,"width":750,"height":469},"thumbnail":{"ext":".png","url":"/uploads/thumbnail_car_service_bb3ab36637.png","hash":"thumbnail_car_service_bb3ab36637","mime":"image/png","name":"thumbnail_car service.png","path":null,"size":41.03,"width":245,"height":153}},"hash":"car_service_bb3ab36637","ext":".png","mime":"image/png","size":478.65,"url":"/uploads/car_service_bb3ab36637.png","previewUrl":null,"provider":"local","provider_metadata":null,"createdAt":"2023-12-19T17:36:43.596Z","updatedAt":"2023-12-19T17:36:43.596Z"}}},"category":{"data":{"id":18,"attributes":{"name":"Buseniss","createdAt":"2023-12-19T17:22:11.390Z","updatedAt":"2023-12-20T01:46:56.797Z","publishedAt":"2023-12-19T17:22:11.388Z"}}}}}],"meta":{"pagination":{"page":1,"pageSize":12,"pageCount":3,"total":31}}}